INDEX VERSION 1.130+C:\fsd57-module3\2.AdvJava\Workspace1\.metadata\.plugins\org.eclipse.jdt.core
2507423472.index
674573568.index
4061673944.index
1961815414.index
4138326577.index
1389037382.index
3644761064.index
4145623842.index
674150130.index
706417688.index
411227453.index
896659770.index
3228262787.index
1658365089.index
2885606711.index
2460186442.index
224940925.index
3886313794.index
3348520720.index
1945225202.index
3040837599.index
3265647927.index
1250903056.index
2035119127.index
1402973260.index
2674935563.index
826993859.index
177331154.index
103378668.index
2205283528.index
2066830214.index
3085558794.index
895354549.index
1410682346.index
542153213.index
1956904976.index
2024578011.index
4259073463.index
1946725198.index
2290368981.index
131017432.index
3277373637.index
4135958314.index
3134100507.index
1547885366.index
459646728.index
2654447435.index
3809177064.index
